open
DLL_PROCESS_ATTACH
WinRDI_GetVersion
WinRDI_Get_RDIProcVec: 01792E6C
DLL_THREAD_ATTACH
DLL_THREAD_ATTACH
DLL_THREAD_ATTACH
DLL_THREAD_ATTACH
DLL_THREAD_DETACH
DLL_THREAD_DETACH
DLL_THREAD_ATTACH
DLL_THREAD_ATTACH
DLL_THREAD_DETACH
DLL_THREAD_DETACH
DLL_THREAD_ATTACH
DLL_THREAD_ATTACH
DLL_THREAD_DETACH
DLL_THREAD_DETACH
DLL_THREAD_ATTACH
DLL_THREAD_DETACH
DLL_THREAD_ATTACH
DLL_THREAD_ATTACH
DLL_THREAD_DETACH
DLL_THREAD_DETACH
WinRDI_Register_Yield_Callback: 60091A50
OpenAgentProc: 606EF8D0, 00000002, 0731C0B0, 6040DCD4, 00000000 agent-> 01790918
cold start
reset the comms link
config comm device: COM5
InfoProc: 01790924, 0000001C, (0164E6A0)=00000014, (0164E78C)=02080074
   RDIInfo_Modules nProcs=20
  ARM, CPU1 01792E6C 01790930
InfoProc: 01790924, 00000032, (606EF8D4)=00000000, (00000000)=00000000
   RDIInfo_AllowedWhilstExecuting
OpenProc :01790930, 00000002, 0731C0B0, 6040DCD4, 00000000
reset the comms link
cold start
load monitor.. base = 0x00000000, length = 0x000001C8
Reset target !
   read reg's !
R0: 00000081 00000000 80001000 FFFFFFFF 80000000 00000000 000000BD 00000000 
R8: 100000F7 10000101 FFFFFFFF FFFFFFFF FFFFFFFF   LR(R14): 100000E5 
PC: 000000CA       XPSR: 41000000
MSP: 00003FF8       PSP: FFFFFFFC
lr_bkpt: FFFFFFF9       ipsr_bkpt: 00000003
PRIMASK: 00000000       CONTROL: 00000000
IAPSR: 00000000    EAPSR: 00000000    IEPSR 00000000
WinRDI_Get_DLL_Description
InfoProc: 01790930, 00000000, (604A6114)=00000000, (0164E690)=00000000
   RDIInfo_Target#Module arg1 <= 00008010 arg2 <= 01790930
InfoProc: 01790930, 00000001, (604A611C)=00000000, (0164E690)=01790930
InfoProc: 01790930, 00000002, (0164E68C)=00000000, (0164E690)=01790930
   RDIInfo_Step arg1 <= 00000004
InfoProc: 01790930, 00000006, (0164E68C)=00000004, (0164E690)=01790930
   RDIInfo_CoPro
InfoProc: 01790930, 00000005, (0164E68C)=00000004, (0164E690)=01790930
   RDIInfo_SemiHosting
InfoProc: 01790930, 00000007, (0164E68C)=00000004, (0164E690)=01790930
   RDIInfo_Icebreaker
InfoProc: 01790930, 00000004, (0164E68C)=00000004, (0164E690)=01790930
   RDIInfo_DownLoad
InfoProc: 01790930, 0000000D, (0164E68C)=00000004, (0164E690)=01790930
   RDIInfo_Memory_Stats
InfoProc: 01790930, 00008012, (0164E68C)=00000004, (0164E690)=01790930
   RDIInfo_ReadClock
InfoProc: 01790930, 00008190, (0164E68C)=00000004, (0164E690)=01790930
   RDIInfo_SemiHostingSetARMSWI
InfoProc: 01790930, 00008A01, (0164E68C)=00000004, (0164E690)=01790930
   RDIInfo_CustomLoad
InfoProc: 01790930, 00008A03, (0164E68C)=00000004, (0164E690)=01790930
   RDIInfo_CanDoGeneralPurpose
InfoProc: 01790930, 00000029, (0164E68C)=00000004, (0164E690)=01790930
   RDIInfo_SynchronizationControl
InfoProc: 01790930, 00000600, (0164E68C)=00000000, (0164E690)=01790930
   RDIInfo__reserved_0x600
InfoProc: 01790930, 00000014, (0164E68C)=00000000, (0164E690)=01790930
   RDIInfo_CanTargetExecute
InfoProc: 01790930, 00000017, (0164E68C)=00000000, (0164E690)=01790930
   RDIInfo_CanAckHeartbeat
InfoProc: 01790930, 00008202, (0164E68C)=00000000, (0164E690)=01790930
   RDIInfo_RequestCyclesDesc
InfoProc: 01790930, 00000028, (0164E68C)=00000000, (0164E690)=01790930
   RDISemiHosting_DCC
InfoProc: 01790930, 0000001F, (0164E68C)=00000000, (0164E690)=01790930
   RDIInfo_MovableVectors
InfoProc: 01790930, 00000020, (0164E68C)=00000000, (0164E690)=01790930
   RDIInfo_CP15CacheSelection
InfoProc: 01790930, 00000021, (0164E68C)=00000000, (0164E690)=01790930
   RDIInfo_CP15CurrentMemoryArea
InfoProc: 01790930, 00000023, (0164E68C)=00000000, (0164E690)=01790930
   RDIInfo_CanForceSystemReset
InfoProc: 01790930, 000001A0, (0164E68C)=00000000, (0164E690)=01790930
   RDIInfo_unknown_0x1a0
InfoProc: 01790930, 0000019E, (0164E68C)=00000000, (0164E690)=01790930
   RDIInfo_GetCPAccessCodeAddress
InfoProc: 01790930, 00000025, (0164E68C)=00000000, (0164E690)=01790930
   RDIInfo_IOBitsSupported
InfoProc: 01790924, 00000700, (0164E68C)=00000000, (0164E690)=01790930
   RDIInfo_Properties
InfoProc: 01790930, 00000180, (0164E68C)=00000000, (0164E690)=01790930
   RDIVector_Catch
InfoProc: 01790930, 0000001E, (0164E68C)=00000000, (0164E690)=01790930
   RDIInfo_GetClockSpeed
InfoProc: 01790930, 00000022, (0164E68C)=00000000, (0164E690)=01790930
   RDIInfo_SafeNonVectorAddress
InfoProc: 01790930, 00000800, (0164E68C)=00000000, (0164E690)=01790930
   RDIInfo_Log
InfoProc: 01790930, 00000181, (0164E68C)=00000000, (0164E690)=01790930
   RDISemiHosting_SetState
InfoProc: 01790930, 00000182, (0164E68C)=00000000, (0164E690)=01790930
   RDISemiHosting_GetState
InfoProc: 01790930, 00000184, (0164E68C)=00000000, (0164E690)=01790930
   RDISemiHosting_GetVector
InfoProc: 01790930, 00000191, (0164E68C)=00000000, (0164E690)=01790930
   RDISemiHosting_GetARMSWI
InfoProc: 01790930, 00000193, (0164E68C)=00000000, (0164E690)=01790930
   RDISemiHosting_GetThumbSWI
InfoProc: 01790930, 00000194, (0164E68C)=00000000, (0164E690)=01790930
   RDIInfo_GetSafeNonVectorAddress
InfoProc: 01790930, 00000198, (0164E68C)=00000000, (0164E690)=01790930
   RDIInfo_GetCP15CacheSelected
WriteProc: 01790930, sou:0DE2C298, ADDR:00000000, SIZE:00000080
   monitor shadow write: START:0000 END:FFFFFFFF, ptr_start:0080 ptr_end:007F 
WriteProc: 01790930, sou:05288238, ADDR:00001000, SIZE:00000400
WriteProc: 01790930, sou:05288638, ADDR:00001400, SIZE:00000400
WriteProc: 01790930, sou:05288A38, ADDR:00001800, SIZE:00000400
WriteProc: 01790930, sou:05288E38, ADDR:00001C00, SIZE:00000400
WriteProc: 01790930, sou:05289238, ADDR:00002000, SIZE:00000400
WriteProc: 01790930, sou:05289638, ADDR:00002400, SIZE:0000033C
WriteProc: 01790930, sou:0DB56620, ADDR:0000273C, SIZE:00000400
WriteProc: 01790930, sou:0DB56A20, ADDR:00002B3C, SIZE:00000400
WriteProc: 01790930, sou:0DB56E20, ADDR:00002F3C, SIZE:00000064
OpenAgentProc: 606EF8D0, 00000001, 00000000, 00000000, 00000000 agent-> 01790918
warm start
OpenProc :01790930, 00000001, 00000000, 00000000, 00000000
warm start
Read PC: 000000CA
CPUWriteProc: 01790930, 000000FF, 00010000, (0164ED30)=00000000
  Wr PC: 00000000
ReadProc: 01790930, ADDR:00000000 dest:0164ED64, SIZE:00000004
ReadProc: 01790930, ADDR:00000004 dest:0164ED60, SIZE:00000004
Read PC: 00000000
InfoProc: 01790930, 0000001D, (0164ED10)=00000000, (0164ED0C)=00000000
   RDIInfo_Modifiable
CPUWriteProc: 01790930, 000000FF, 00010000, (604DD26C)=000026D4
  Wr PC: 000026D4
Read PC: 000026D4
InfoProc: 01790930, 0000001D, (0164ED10)=00000000, (0164ED0C)=00000000
   RDIInfo_Modifiable
CPUWriteProc: 01790930, 000000FF, 00002000, (604DD1EC)=00002970
 reg[13]: 00002970
Read PC: 000026D4
ReadProc: 01790930, ADDR:000023D4 dest:0164E8FC, SIZE:00000002
    Set Break: 01793EE4 adr:000023D4
ReadProc: 01790930, ADDR:000026D4 dest:0849F564, SIZE:00000002
ExecuteProc pc = 0x000026D4, sp = 0x00002970
exec_prog_func
     ReturnAddress : 0x000026D5
     msp : 0x00002950, r[13] : 0x00002970
   new PC reg!
DLL_THREAD_ATTACH
DLL_THREAD_ATTACH
DLL_THREAD_DETACH
   read reg's !
   reached breakpoint
Read PC: 000023D4
ReadProc: 01790930, ADDR:000023D4 dest:0849F698, SIZE:00000002
    Clr Break: 01793EE4 adr:000023D4
DLL_THREAD_DETACH
ReadProc: 01790930, ADDR:00002A90 dest:04A7BFA0, SIZE:00000010
ReadProc: 01790930, ADDR:00002AA0 dest:04A7C090, SIZE:00000010
ReadProc: 01790930, ADDR:00002AB0 dest:04A7BFD0, SIZE:00000010
ReadProc: 01790930, ADDR:00002AC0 dest:04A7BF10, SIZE:00000010
ReadProc: 01790930, ADDR:00002AD0 dest:04A7BFD0, SIZE:00000010
ReadProc: 01790930, ADDR:00002AE0 dest:04A7BE08, SIZE:00000010
ReadProc: 01790930, ADDR:00002AF0 dest:04A7BE98, SIZE:00000010
ReadProc: 01790930, ADDR:00002B00 dest:04A7BEB0, SIZE:00000010
ReadProc: 01790930, ADDR:00002B10 dest:04A7BE98, SIZE:00000010
ReadProc: 01790930, ADDR:00002B20 dest:04A7C0D8, SIZE:00000010
ReadProc: 01790930, ADDR:00002B30 dest:04A7BF58, SIZE:00000010
ReadProc: 01790930, ADDR:00002B40 dest:04A7BF10, SIZE:00000010
ReadProc: 01790930, ADDR:000022D4 dest:0DB5D520, SIZE:00000080
ReadProc: 01790930, ADDR:000023C4 dest:0DB5D520, SIZE:00000080
ReadProc: 01790930, ADDR:000022EC dest:0DB5D520, SIZE:00000080
ReadProc: 01790930, ADDR:000023B8 dest:0DB5D520, SIZE:00000080
ReadProc: 01790930, ADDR:000022F2 dest:0DB5D520, SIZE:00000002
ReadProc: 01790930, ADDR:000022F4 dest:0DB5D522, SIZE:0000007C
ReadProc: 01790930, ADDR:00002370 dest:0DB5D59E, SIZE:00000002
ReadProc: 01790930, ADDR:000023C8 dest:0DB5D520, SIZE:00000080
ReadProc: 01790930, ADDR:00002310 dest:0DB5D520, SIZE:00000080
ReadProc: 01790930, ADDR:000023B8 dest:0DB5D520, SIZE:00000080
ReadProc: 01790930, ADDR:00002314 dest:0DB5D520, SIZE:00000080
ReadProc: 01790930, ADDR:000023C8 dest:0DB5D520, SIZE:00000080
ReadProc: 01790930, ADDR:0000231E dest:0DB5D520, SIZE:00000002
ReadProc: 01790930, ADDR:00002320 dest:0DB5D522, SIZE:0000007C
ReadProc: 01790930, ADDR:0000239C dest:0DB5D59E, SIZE:00000002
ReadProc: 01790930, ADDR:000023C8 dest:0DB5D520, SIZE:00000080
ReadProc: 01790930, ADDR:00002324 dest:0DB5D520, SIZE:00000080
ReadProc: 01790930, ADDR:000023B8 dest:0DB5D520, SIZE:00000080
ReadProc: 01790930, ADDR:00002328 dest:0DB5D520, SIZE:00000080
ReadProc: 01790930, ADDR:000023C4 dest:0DB5D520, SIZE:00000080
ReadProc: 01790930, ADDR:00002336 dest:0DB5D520, SIZE:00000002
ReadProc: 01790930, ADDR:00002338 dest:0DB5D522, SIZE:0000007C
ReadProc: 01790930, ADDR:000023B4 dest:0DB5D59E, SIZE:00000002
ReadProc: 01790930, ADDR:000023C8 dest:0DB5D520, SIZE:00000080
ReadProc: 01790930, ADDR:0000233E dest:0DB5D520, SIZE:00000002
ReadProc: 01790930, ADDR:00002340 dest:0DB5D522, SIZE:0000007C
ReadProc: 01790930, ADDR:000023BC dest:0DB5D59E, SIZE:00000002
ReadProc: 01790930, ADDR:000023C8 dest:0DB5D520, SIZE:00000080
ReadProc: 01790930, ADDR:0000234C dest:0DB5D520, SIZE:00000080
ReadProc: 01790930, ADDR:000023CC dest:0DB5D520, SIZE:00000080
ReadProc: 01790930, ADDR:0000237E dest:0DB5D520, SIZE:00000002
ReadProc: 01790930, ADDR:00002380 dest:0DB5D522, SIZE:0000007C
ReadProc: 01790930, ADDR:000023FC dest:0DB5D59E, SIZE:00000002
ReadProc: 01790930, ADDR:000025F4 dest:0DB5D520, SIZE:00000080
ReadProc: 01790930, ADDR:000023DC dest:0DB5D520, SIZE:00000080
ReadProc: 01790930, ADDR:000025F8 dest:0DB5D520, SIZE:00000080
ReadProc: 01790930, ADDR:000023E0 dest:0DB5D520, SIZE:00000080
ReadProc: 01790930, ADDR:000025FC dest:0DB5D520, SIZE:00000080
ReadProc: 01790930, ADDR:000023E2 dest:0DB5D520, SIZE:00000002
ReadProc: 01790930, ADDR:000023E4 dest:0DB5D522, SIZE:0000007C
ReadProc: 01790930, ADDR:00002460 dest:0DB5D59E, SIZE:00000002
ReadProc: 01790930, ADDR:00002600 dest:0DB5D520, SIZE:00000080
ReadProc: 01790930, ADDR:000023E4 dest:0DB5D520, SIZE:00000080
ReadProc: 01790930, ADDR:00002604 dest:0DB5D520, SIZE:00000080
ReadProc: 01790930, ADDR:000023E8 dest:0DB5D520, SIZE:00000080
ReadProc: 01790930, ADDR:00002608 dest:0DB5D520, SIZE:00000080
ReadProc: 01790930, ADDR:000023EE dest:0DB5D520, SIZE:00000002
ReadProc: 01790930, ADDR:000023F0 dest:0DB5D522, SIZE:0000007C
ReadProc: 01790930, ADDR:0000246C dest:0DB5D59E, SIZE:00000002
ReadProc: 01790930, ADDR:0000260C dest:0DB5D520, SIZE:00000080
ReadProc: 01790930, ADDR:000023F4 dest:0DB5D520, SIZE:00000080
ReadProc: 01790930, ADDR:00002610 dest:0DB5D520, SIZE:00000080
ReadProc: 01790930, ADDR:000023FC dest:0DB5D520, SIZE:00000080
ReadProc: 01790930, ADDR:00002614 dest:0DB5D520, SIZE:00000080
ReadProc: 01790930, ADDR:00002404 dest:0DB5D520, SIZE:00000080
ReadProc: 01790930, ADDR:00002618 dest:0DB5D520, SIZE:00000080
ReadProc: 01790930, ADDR:0000240A dest:0DB5D520, SIZE:00000002
ReadProc: 01790930, ADDR:0000240C dest:0DB5D522, SIZE:0000007C
ReadProc: 01790930, ADDR:00002488 dest:0DB5D59E, SIZE:00000002
ReadProc: 01790930, ADDR:0000260C dest:0DB5D520, SIZE:00000080
ReadProc: 01790930, ADDR:0000246C dest:0DB5D520, SIZE:00000080
ReadProc: 01790930, ADDR:0000260C dest:0DB5D520, SIZE:00000080
ReadProc: 01790930, ADDR:00002476 dest:0DB5D520, SIZE:00000002
ReadProc: 01790930, ADDR:00002478 dest:0DB5D522, SIZE:0000007C
ReadProc: 01790930, ADDR:000024F4 dest:0DB5D59E, SIZE:00000002
ReadProc: 01790930, ADDR:0000260C dest:0DB5D520, SIZE:00000080
ReadProc: 01790930, ADDR:00002492 dest:0DB5D520, SIZE:00000002
ReadProc: 01790930, ADDR:00002494 dest:0DB5D522, SIZE:0000007C
ReadProc: 01790930, ADDR:00002510 dest:0DB5D59E, SIZE:00000002
ReadProc: 01790930, ADDR:0000260C dest:0DB5D520, SIZE:00000080
ReadProc: 01790930, ADDR:0000249C dest:0DB5D520, SIZE:00000080
ReadProc: 01790930, ADDR:0000260C dest:0DB5D520, SIZE:00000080
ReadProc: 01790930, ADDR:000024AA dest:0DB5D520, SIZE:00000002
ReadProc: 01790930, ADDR:000024AC dest:0DB5D522, SIZE:0000007C
ReadProc: 01790930, ADDR:00002528 dest:0DB5D59E, SIZE:00000002
ReadProc: 01790930, ADDR:0000261C dest:0DB5D520, SIZE:00000080
ReadProc: 01790930, ADDR:000024AE dest:0DB5D520, SIZE:00000002
ReadProc: 01790930, ADDR:000024B0 dest:0DB5D522, SIZE:0000007C
ReadProc: 01790930, ADDR:0000252C dest:0DB5D59E, SIZE:00000002
ReadProc: 01790930, ADDR:0000260C dest:0DB5D520, SIZE:00000080
ReadProc: 01790930, ADDR:000024B2 dest:0DB5D520, SIZE:00000002
ReadProc: 01790930, ADDR:000024B4 dest:0DB5D522, SIZE:0000007C
ReadProc: 01790930, ADDR:00002530 dest:0DB5D59E, SIZE:00000002
ReadProc: 01790930, ADDR:0000260C dest:0DB5D520, SIZE:00000080
ReadProc: 01790930, ADDR:000024C0 dest:0DB5D520, SIZE:00000080
ReadProc: 01790930, ADDR:00002620 dest:0DB5D520, SIZE:00000080
ReadProc: 01790930, ADDR:000024C4 dest:0DB5D520, SIZE:00000080
ReadProc: 01790930, ADDR:0000260C dest:0DB5D520, SIZE:00000080
ReadProc: 01790930, ADDR:000024C8 dest:0DB5D520, SIZE:00000080
ReadProc: 01790930, ADDR:00002624 dest:0DB5D520, SIZE:00000080
ReadProc: 01790930, ADDR:000024CC dest:0DB5D520, SIZE:00000080
ReadProc: 01790930, ADDR:00000000 dest:0DB5D520, SIZE:00000080
   monitor shadow read: START:0000 END:0057, ptr_start:0028 ptr_end:007F 
ReadProc: 01790930, ADDR:00000080 dest:0DB5D520, SIZE:00000080
   monitor shadow read: START:0058 END:00D7, ptr_start:0000 ptr_end:007F 
DLL_THREAD_ATTACH
ReadProc: 01790930, ADDR:00002A90 dest:04A7BF40, SIZE:00000010
ReadProc: 01790930, ADDR:00002AA0 dest:04A7BEF8, SIZE:00000010
ReadProc: 01790930, ADDR:00002AB0 dest:04A7C030, SIZE:00000010
ReadProc: 01790930, ADDR:00002AC0 dest:04A7C048, SIZE:00000010
ReadProc: 01790930, ADDR:00002AD0 dest:04A7BF88, SIZE:00000010
ReadProc: 01790930, ADDR:00002AE0 dest:04A7BEB0, SIZE:00000010
ReadProc: 01790930, ADDR:00002AF0 dest:04A7BE98, SIZE:00000010
ReadProc: 01790930, ADDR:00002B00 dest:04A7C060, SIZE:00000010
ReadProc: 01790930, ADDR:00002B10 dest:04A7C000, SIZE:00000010
ReadProc: 01790930, ADDR:00002B20 dest:04A7BF88, SIZE:00000010
ReadProc: 01790930, ADDR:00002B30 dest:04A7BF28, SIZE:00000010
ReadProc: 01790930, ADDR:00002B40 dest:04A7C000, SIZE:00000010
ReadProc: 01790930, ADDR:0000244A dest:0849F2E4, SIZE:00000002
    Set Break: 01793EE4 adr:0000244A
ReadProc: 01790930, ADDR:000023D4 dest:0849F524, SIZE:00000002
ExecuteProc pc = 0x000023D4, sp = 0x00002970
exec_prog_func
   read reg's !
   reached breakpoint
Read PC: 0000244A
ReadProc: 01790930, ADDR:0000244A dest:0849F658, SIZE:00000002
    Clr Break: 01793EE4 adr:0000244A
ReadProc: 01790930, ADDR:00002A90 dest:04A7BE98, SIZE:00000010
ReadProc: 01790930, ADDR:00002AA0 dest:04A7BF28, SIZE:00000010
ReadProc: 01790930, ADDR:00002AB0 dest:04A7BE68, SIZE:00000010
ReadProc: 01790930, ADDR:00002AC0 dest:04A7C090, SIZE:00000010
ReadProc: 01790930, ADDR:00002AD0 dest:04A7C018, SIZE:00000010
ReadProc: 01790930, ADDR:00002AE0 dest:04A7C090, SIZE:00000010
ReadProc: 01790930, ADDR:00002AF0 dest:04A7BE68, SIZE:00000010
ReadProc: 01790930, ADDR:00002B00 dest:04A7BEB0, SIZE:00000010
ReadProc: 01790930, ADDR:00002B10 dest:04A7BF28, SIZE:00000010
ReadProc: 01790930, ADDR:00002B20 dest:04A7C000, SIZE:00000010
ReadProc: 01790930, ADDR:00002B30 dest:04A7BF88, SIZE:00000010
