open
DLL_PROCESS_ATTACH
WinRDI_GetVersion
WinRDI_Get_RDIProcVec: 04C72E6C
DLL_THREAD_ATTACH
DLL_THREAD_ATTACH
DLL_THREAD_ATTACH
DLL_THREAD_DETACH
DLL_THREAD_DETACH
WinRDI_Register_Yield_Callback: 09EB1A50
OpenAgentProc: 0A50F8D0, 00000002, 139183D8, 0A22DCD4, 00000000 agent-> 04C70918
cold start
reset the comms link
config comm device: COM6
InfoProc: 04C70924, 0000001C, (015FEA08)=00000014, (015FEAF4)=7790DC30
   RDIInfo_Modules nProcs=20
  ARM, CPU1 04C72E6C 04C70930
InfoProc: 04C70924, 00000032, (0A50F8D4)=00000000, (00000000)=00000000
   RDIInfo_AllowedWhilstExecuting
OpenProc :04C70930, 00000002, 139183D8, 0A22DCD4, 00000000
reset the comms link
cold start
Can't connect with boot!
DLL_THREAD_DETACH
DLL_PROCESS_DETACH
