###############################################################################
#                                                                             #
#     IAR Assembler V6.40.2.53884/W32 for ARM 28/Dec/2021  11:23:56           #
#     Copyright 1999-2012 IAR Systems AB.                                     #
#                                                                             #
#           Source file   =  D:\users\ie\gps\noise\ajpp_titan_v5_2\thumb\vector_table_M.s#
#           List file     =  D:\users\ie\gps\noise\ajpp_titan_v5_2\Debug\List\vector_table_M.lst#
#           Object file   =  D:\users\ie\gps\noise\ajpp_titan_v5_2\Debug\Obj\vector_table_M.o#
#           Command line  =  D:\users\ie\gps\noise\ajpp_titan_v5_2\thumb\vector_table_M.s #
#                            -OD:\users\ie\gps\noise\ajpp_titan_v5_2\Debug\Obj\ #
#                            -s+ -M<> -w+ -r                                  #
#                            -LD:\users\ie\gps\noise\ajpp_titan_v5_2\Debug\List\ #
#                            -t8 --cpu Cortex-M0 --fpu None                   #
#                                                                             #
###############################################################################

    1                           /*********************************************
                                *****
    2                            *
    3                            * Part one of the system initialization code,
                                 contains low-level
    4                            * initialization, plain thumb variant.
    5                            *
    6                            * Copyright 2008 IAR Systems. All rights
                                 reserved.
    7                            *
    8                            * $Revision: 52685 $
    9                            *
   10                            *********************************************
                                *****/
   11                           
   12                           ;
   13                           ; The modules in this file are included in the
                                 libraries, and may be replaced
   14                           ; by any user-defined modules that define the
                                 PUBLIC symbol __iar_program_start or
   15                           ; a user defined start symbol.
   16                           ; To override the cstartup defined in the
                                 library, simply add your modified
   17                           ; version to the workbench project.
   18                           ;
   19                           ; The vector table is normally located at
                                 address 0.
   20                           ; When debugging in RAM, it can be located in
                                 RAM, aligned to at least 2^6.
   21                           ; The name "__vector_table" has special
                                 meaning for C-SPY, which
   22                           ; is where to find the SP start value.
   23                           ; If vector table is not located at address 0,
                                 the user has to initialize the  NVIC
                                 vector
   24                           ; table register (VTOR) before using
                                 interrupts.
   25                           ;
   26                           ; Cortex-M version
   27                           ;
   28                           
   29                                   MODULE  ?vector_table
   30                           
   31                                   AAPCS INTERWORK, VFP_COMPATIBLE,
                                 RWPI_COMPATIBLE
   32                                   PRESERVE8
   33                           
   34                           
   35                                   ;; Forward declaration of sections.
   36                                   SECTION CSTACK:DATA:NOROOT(3)
   37                           
   38                                   SECTION .intvec:CODE:NOROOT(2)
   39                           
   40                                   EXTERN  __iar_program_start
   41                                   PUBLIC  __vector_table
   42                           
   43                                   DATA
   44                           
   45                           __iar_init$$done:               ; The vector
                                 table is not needed
   46                                                           ; until after
                                 copy initialization is done
   47                           
   48                           __vector_table
   49    00000000 ........              DCD     sfe(CSTACK)
   50    00000004 ........              DCD     __iar_program_start
   51                           
   52    00000008 ........              DCD     NMI_Handler
   53    0000000C ........              DCD     HardFault_Handler
   54    00000010 ........              DCD     MemManage_Handler
   55    00000014 ........              DCD     BusFault_Handler
   56    00000018 ........              DCD     UsageFault_Handler
   57    0000001C 00000000              DCD     0
   58    00000020 00000000              DCD     0
   59    00000024 00000000              DCD     0
   60    00000028 00000000              DCD     0
   61    0000002C ........              DCD     SVC_Handler
   62    00000030 ........              DCD     DebugMon_Handler
   63    00000034 00000000              DCD     0
   64    00000038 ........              DCD     PendSV_Handler
   65    0000003C ........              DCD     SysTick_Handler
   66                                    ; External Interrupts
   67    00000040 ........              DCD     DMA1_Stream0_IRQHandler        
    ; DMA1 Stream 0                                   
   68    00000044 ........              DCD     DMA1_Stream1_IRQHandler        
    ; DMA1 Stream 1         
   69    00000048 ........              DCD     TIM1_IRQHandler                
    ; TIM1
   70    0000004C ........              DCD     TIM2_IRQHandler                
    ; TIM2
   71    00000050 ........              DCD     USART1_IRQHandler              
    ; USART1                                          
   72    00000054 ........              DCD     USART2_IRQHandler              
    ; USART2
   73    00000058 ........              DCD     SPI1_IRQHandler                
    ; SPI1                                            
   74    0000005C ........              DCD     USART3_IRQHandler              
    ; USART2SPI2_IRQHandler                   ; SPI2
   75                                   
   76    00000060 ........              DCD     EXTI0_IRQHandler               
    ; EXTI Line0                                             
   77    00000064 ........              DCD     EXTI1_IRQHandler               
    ; EXTI Line1                                             
   78    00000068 ........              DCD     EXTI2_IRQHandler               
    ; EXTI Line2                                             
   79    0000006C ........              DCD     EXTI3_IRQHandler               
    ; EXTI Line3                                             
   80    00000070 ........              DCD     EXTI4_IRQHandler               
    ; EXTI Line4
   81    00000074 ........              DCD     EXTI5_IRQHandler               
    ; EXTI Line2                                             
   82    00000078 ........              DCD     EXTI6_IRQHandler               
    ; EXTI Line3                                             
   83    0000007C ........              DCD     EXTI7_IRQHandler               
    ; EXTI Line4
   84                           
   85                           ;;;;;;;;;;;;;;;;;;;;;;;;;;;;;;;;;;;;;;;;;;;;;;
                                ;;;;;;
   86                           ;;
   87                           ;; Default interrupt handlers.
   88                           ;;
   89                           
   90                           ;        PUBWEAK NMI_Handler
   91                           ;        PUBWEAK HardFault_Handler
   92                           ;        PUBWEAK MemManage_Handler
   93                           ;        PUBWEAK BusFault_Handler
   94                           ;        PUBWEAK UsageFault_Handler
   95                           ;        PUBWEAK SVC_Handler
   96                           ;        PUBWEAK DebugMon_Handler
   97                           ;        PUBWEAK PendSV_Handler
   98                           ;        PUBWEAK SysTick_Handler
   99                           ;        PUBWEAK DMA1_Stream0_IRQHandler
  100                           ;        PUBWEAK DMA1_Stream1_IRQHandler
  101                           ;        PUBWEAK TIM1_IRQHandler
  102                           ;        PUBWEAK TIM2_IRQHandler
  103                           ;        PUBWEAK USART1_IRQHandler
  104                           ;        PUBWEAK USART2_IRQHandler
  105                           ;        PUBWEAK SPI1_IRQHandler
  106                           ;        PUBWEAK SPI2_IRQHandler
  107                           ;        PUBWEAK EXTI0_IRQHandler
  108                           ;        PUBWEAK EXTI1_IRQHandler
  109                           ;        PUBWEAK EXTI2_IRQHandler
  110                           ;        PUBWEAK EXTI3_IRQHandler
  111                           ;        PUBWEAK EXTI4_IRQHandler
  112                           ;        PUBWEAK EXTI5_IRQHandler
  113                           ;        PUBWEAK EXTI6_IRQHandler
  114                           ;        PUBWEAK EXTI7_IRQHandler
  115                           
  116                                   
  117                                   SECTION .text:CODE:REORDER(1)
  118                                   THUMB
  119                           
  120                                   PUBWEAK NMI_Handler
  121                                   SECTION .text:CODE:REORDER(1)
  122                           NMI_Handler
  123    00000000 ....                  B NMI_Handler
  124                           
  125                                   PUBWEAK HardFault_Handler
  126                                   SECTION .text:CODE:REORDER(1)
  127                           HardFault_Handler
  128    00000000 ....                  B HardFault_Handler
  129                           
  130                                   PUBWEAK MemManage_Handler
  131                                   SECTION .text:CODE:REORDER(1)
  132                           MemManage_Handler
  133    00000000 ....                  B MemManage_Handler
  134                           
  135                                   PUBWEAK BusFault_Handler
  136                                   SECTION .text:CODE:REORDER(1)
  137                           BusFault_Handler
  138    00000000 ....                  B BusFault_Handler
  139                           
  140                                   PUBWEAK UsageFault_Handler
  141                                   SECTION .text:CODE:REORDER(1)
  142                           UsageFault_Handler
  143    00000000 ....                  B UsageFault_Handler
  144                           
  145                                   PUBWEAK SVC_Handler
  146                                   SECTION .text:CODE:REORDER(1)
  147                           SVC_Handler
  148    00000000 ....                  B SVC_Handler
  149                           
  150                                   PUBWEAK DebugMon_Handler
  151                                   SECTION .text:CODE:REORDER(1)
  152                           DebugMon_Handler
  153    00000000 ....                  B DebugMon_Handler
  154                           
  155                                   PUBWEAK PendSV_Handler
  156                                   SECTION .text:CODE:REORDER(1)
  157                           PendSV_Handler
  158    00000000 ....                  B PendSV_Handler
  159                           
  160                                   PUBWEAK SysTick_Handler
  161                                   SECTION .text:CODE:REORDER(1)
  162                           SysTick_Handler
  163    00000000 ....                  B SysTick_Handler
  164                           
  165                           ; External Interrupts
  166                                   PUBWEAK DMA1_Stream0_IRQHandler
  167                                   SECTION .text:CODE:REORDER(1)   
                                 
  168                           DMA1_Stream0_IRQHandler  
  169    00000000 ....                  B DMA1_Stream0_IRQHandler
  170                           
  171                                   PUBWEAK DMA1_Stream1_IRQHandler
  172                                   SECTION .text:CODE:REORDER(1)   
                                 
  173                           DMA1_Stream1_IRQHandler  
  174    00000000 ....                  B DMA1_Stream1_IRQHandler
  175                           
  176                                   PUBWEAK TIM1_IRQHandler
  177                                   SECTION .text:CODE:REORDER(1)
  178                           TIM1_IRQHandler  
  179    00000000 ....                  B TIM1_IRQHandler
  180                           
  181                                   PUBWEAK TIM2_IRQHandler
  182                                   SECTION .text:CODE:REORDER(1)
  183                           TIM2_IRQHandler  
  184    00000000 ....                  B TIM2_IRQHandler
  185                           
  186                                   PUBWEAK USART1_IRQHandler
  187                                   SECTION .text:CODE:REORDER(1)
  188                           USART1_IRQHandler  
  189    00000000 ....                  B USART1_IRQHandler
  190                           
  191                                   PUBWEAK USART2_IRQHandler
  192                                   SECTION .text:CODE:REORDER(1)
  193                           USART2_IRQHandler  
  194    00000000 ....                  B USART2_IRQHandler        
  195                                   
  196                                   PUBWEAK USART3_IRQHandler
  197                                   SECTION .text:CODE:REORDER(1)
  198                           USART3_IRQHandler  
  199    00000000 ....                  B USART3_IRQHandler        
  200                           
  201                                   PUBWEAK SPI1_IRQHandler
  202                                   SECTION .text:CODE:REORDER(1)
  203                           SPI1_IRQHandler  
  204    00000000 ....                  B SPI1_IRQHandler
  205                           
  206                                   PUBWEAK SPI2_IRQHandler
  207                                   SECTION .text:CODE:REORDER(1)
  208                           SPI2_IRQHandler  
  209    00000000 ....                  B SPI2_IRQHandler
  210                           
  211                                   PUBWEAK EXTI0_IRQHandler
  212                                   SECTION .text:CODE:REORDER(1)
  213                           EXTI0_IRQHandler  
  214    00000000 ....                  B EXTI0_IRQHandler
  215                           
  216                                   PUBWEAK EXTI1_IRQHandler
  217                                   SECTION .text:CODE:REORDER(1)
  218                           EXTI1_IRQHandler  
  219    00000000 ....                  B EXTI1_IRQHandler
  220                           
  221                                   PUBWEAK EXTI2_IRQHandler
  222                                   SECTION .text:CODE:REORDER(1)
  223                           EXTI2_IRQHandler  
  224    00000000 ....                  B EXTI2_IRQHandler
  225                           
  226                                   PUBWEAK EXTI3_IRQHandler
  227                                   SECTION .text:CODE:REORDER(1)
  228                           EXTI3_IRQHandler
  229    00000000 ....                  B EXTI3_IRQHandler
  230                           
  231                                   PUBWEAK EXTI4_IRQHandler
  232                                   SECTION .text:CODE:REORDER(1)   
                                 
  233                           EXTI4_IRQHandler  
  234    00000000 ....                  B EXTI4_IRQHandler
  235                                   
  236                                   PUBWEAK EXTI5_IRQHandler
  237                                   SECTION .text:CODE:REORDER(1)
  238                           EXTI5_IRQHandler  
  239    00000000 ....                  B EXTI5_IRQHandler
  240                           
  241                                   PUBWEAK EXTI6_IRQHandler
  242                                   SECTION .text:CODE:REORDER(1)
  243                           EXTI6_IRQHandler
  244    00000000 ....                  B EXTI6_IRQHandler
  245                           
  246                                   PUBWEAK EXTI7_IRQHandler
  247                                   SECTION .text:CODE:REORDER(1)   
                                 
  248                           EXTI7_IRQHandler  
  249    00000000 ....                  B EXTI7_IRQHandler        
  250                           
  251                           ;NMI_Handler
  252                           ;HardFault_Handler
  253                           ;MemManage_Handler
  254                           ;BusFault_Handler
  255                           ;UsageFault_Handler
  256                           ;SVC_Handler
  257                           ;DebugMon_Handler
  258                           ;PendSV_Handler
  259                           ;SysTick_Handler
  260                           ;Default_Handler
  261                           ;__default_handler
  262                           ;        CALL_GRAPH_ROOT __default_handler,
                                 "interrupt"
  263                           ;        NOCALL __default_handler
  264                           ;        B __default_handler
  265                           
  266                                   END
##############################
#           CRC:0            #
#        Errors:   0         #
#        Warnings: 0         #
#         Bytes: 180         #
##############################



